{
  "is_class": true,
  "library": "sklearn",
  "compute_resources": {},
  "common_name": "Bernoulli NB",
  "id": "1c6c2ad0-9488-3017-920a-dd6e0114ecf9",
  "category": "naive_bayes",
  "source_code_unanalyzed": "https://github.com/scikit-learn/scikit-learn/blob/0.18.X/sklearn/naive_bayes.py#L711",
  "parameters": [
    {
      "default": "1.0",
      "type": "float",
      "optional": "true",
      "name": "alpha",
      "description": "Additive (Laplace/Lidstone) smoothing parameter (0 for no smoothing). "
    },
    {
      "default": "0.0",
      "type": "float",
      "optional": "true",
      "name": "binarize",
      "description": "Threshold for binarizing (mapping to booleans) of sample features. If None, input is presumed to already consist of binary vectors. "
    },
    {
      "default": "True",
      "type": "boolean",
      "optional": "true",
      "name": "fit_prior",
      "description": "Whether to learn class prior probabilities or not. If false, a uniform prior will be used. "
    },
    {
      "description": "Prior probabilities of the classes. If specified the priors are not adjusted according to the data. ",
      "default": "None",
      "optional": "true",
      "size": "n_classes,",
      "type": "array-like",
      "name": "class_prior"
    }
  ],
  "tags": [
    "naive_bayes"
  ],
  "common_name_unanalyzed": "Bernoulli NB",
  "schema_version": 1.0,
  "languages": [
    "python2.7"
  ],
  "version": "0.18.1",
  "build": [
    {
      "type": "pip",
      "package": "scikit-learn"
    }
  ],
  "description": "'Naive Bayes classifier for multivariate Bernoulli models.\n\nLike MultinomialNB, this classifier is suitable for discrete data. The\ndifference is that while MultinomialNB works with occurrence counts,\nBernoulliNB is designed for binary/boolean features.\n\nRead more in the :ref:`User Guide <bernoulli_naive_bayes>`.\n",
  "methods_available": [
    {
      "id": "sklearn.naive_bayes.BernoulliNB.fit",
      "returns": {
        "type": "object",
        "name": "self",
        "description": "Returns self. '"
      },
      "description": "'Fit Naive Bayes classifier according to X, y\n",
      "parameters": [
        {
          "shape": "n_samples, n_features",
          "type": "array-like, sparse matrix",
          "name": "X",
          "description": "Training vectors, where n_samples is the number of samples and n_features is the number of features. "
        },
        {
          "shape": "n_samples",
          "type": "array-like",
          "name": "y",
          "description": "Target values. "
        },
        {
          "name": "sample_weight",
          "default": "None",
          "optional": "true",
          "shape": "n_samples",
          "type": "array-like",
          "description": "Weights applied to individual samples (1. for unweighted). "
        }
      ],
      "name": "fit"
    },
    {
      "id": "sklearn.naive_bayes.BernoulliNB.get_params",
      "returns": {
        "type": "mapping",
        "name": "params",
        "description": "Parameter names mapped to their values. '"
      },
      "description": "'Get parameters for this estimator.\n",
      "parameters": [
        {
          "type": "boolean",
          "optional": "true",
          "name": "deep",
          "description": "If True, will return the parameters for this estimator and contained subobjects that are estimators. "
        }
      ],
      "name": "get_params"
    },
    {
      "id": "sklearn.naive_bayes.BernoulliNB.partial_fit",
      "returns": {
        "type": "object",
        "name": "self",
        "description": "Returns self. '"
      },
      "description": "'Incremental fit on a batch of samples.\n\nThis method is expected to be called several times consecutively\non different chunks of a dataset so as to implement out-of-core\nor online learning.\n\nThis is especially useful when the whole dataset is too big to fit in\nmemory at once.\n\nThis method has some performance overhead hence it is better to call\npartial_fit on chunks of data that are as large as possible\n(as long as fitting in the memory budget) to hide the overhead.\n",
      "parameters": [
        {
          "shape": "n_samples, n_features",
          "type": "array-like, sparse matrix",
          "name": "X",
          "description": "Training vectors, where n_samples is the number of samples and n_features is the number of features. "
        },
        {
          "shape": "n_samples",
          "type": "array-like",
          "name": "y",
          "description": "Target values. "
        },
        {
          "name": "classes",
          "default": "None",
          "optional": "true",
          "shape": "n_classes",
          "type": "array-like",
          "description": "List of all the classes that can possibly appear in the y vector.  Must be provided at the first call to partial_fit, can be omitted in subsequent calls. "
        },
        {
          "name": "sample_weight",
          "default": "None",
          "optional": "true",
          "shape": "n_samples",
          "type": "array-like",
          "description": "Weights applied to individual samples (1. for unweighted). "
        }
      ],
      "name": "partial_fit"
    },
    {
      "id": "sklearn.naive_bayes.BernoulliNB.predict",
      "returns": {
        "shape": "n_samples",
        "type": "array",
        "name": "C",
        "description": "Predicted target values for X '"
      },
      "description": "'\nPerform classification on an array of test vectors X.\n",
      "parameters": [
        {
          "shape": "n_samples, n_features",
          "type": "array-like",
          "name": "X",
          "description": ""
        }
      ],
      "name": "predict"
    },
    {
      "id": "sklearn.naive_bayes.BernoulliNB.predict_log_proba",
      "returns": {
        "shape": "n_samples, n_classes",
        "type": "array-like",
        "name": "C",
        "description": "Returns the log-probability of the samples for each class in the model. The columns correspond to the classes in sorted order, as they appear in the attribute `classes_`. '"
      },
      "description": "'\nReturn log-probability estimates for the test vector X.\n",
      "parameters": [
        {
          "shape": "n_samples, n_features",
          "type": "array-like",
          "name": "X",
          "description": ""
        }
      ],
      "name": "predict_log_proba"
    },
    {
      "id": "sklearn.naive_bayes.BernoulliNB.predict_proba",
      "returns": {
        "shape": "n_samples, n_classes",
        "type": "array-like",
        "name": "C",
        "description": "Returns the probability of the samples for each class in the model. The columns correspond to the classes in sorted order, as they appear in the attribute `classes_`. '"
      },
      "description": "'\nReturn probability estimates for the test vector X.\n",
      "parameters": [
        {
          "shape": "n_samples, n_features",
          "type": "array-like",
          "name": "X",
          "description": ""
        }
      ],
      "name": "predict_proba"
    },
    {
      "id": "sklearn.naive_bayes.BernoulliNB.score",
      "returns": {
        "type": "float",
        "name": "score",
        "description": "Mean accuracy of self.predict(X) wrt. y.  '"
      },
      "description": "'Returns the mean accuracy on the given test data and labels.\n\nIn multi-label classification, this is the subset accuracy\nwhich is a harsh metric since you require for each sample that\neach label set be correctly predicted.\n",
      "parameters": [
        {
          "shape": "n_samples, n_features",
          "type": "array-like",
          "name": "X",
          "description": "Test samples. "
        },
        {
          "shape": "n_samples",
          "type": "array-like",
          "name": "y",
          "description": "True labels for X. "
        },
        {
          "type": "array-like",
          "shape": "n_samples",
          "optional": "true",
          "name": "sample_weight",
          "description": "Sample weights. "
        }
      ],
      "name": "score"
    },
    {
      "id": "sklearn.naive_bayes.BernoulliNB.set_params",
      "returns": {
        "name": "self",
        "description": "\""
      },
      "description": "\"Set the parameters of this estimator.\n\nThe method works on simple estimators as well as on nested objects\n(such as pipelines). The latter have parameters of the form\n``<component>__<parameter>`` so that it's possible to update each\ncomponent of a nested object.\n",
      "parameters": [],
      "name": "set_params"
    }
  ],
  "learning_type": [
    "supervised"
  ],
  "task_type": [
    "modeling"
  ],
  "source_code": "https://github.com/scikit-learn/scikit-learn/blob/0.18.X/sklearn/naive_bayes.py#L711",
  "category_unanalyzed": "naive_bayes",
  "name": "sklearn.naive_bayes.BernoulliNB",
  "team": "jpl",
  "attributes": [
    {
      "shape": "n_classes",
      "type": "array",
      "name": "class_log_prior_",
      "description": "Log probability of each class (smoothed). "
    },
    {
      "shape": "n_classes, n_features",
      "type": "array",
      "name": "feature_log_prob_",
      "description": "Empirical log probability of features given a class, P(x_i|y). "
    },
    {
      "shape": "n_classes",
      "type": "array",
      "name": "class_count_",
      "description": "Number of samples encountered for each class during fitting. This value is weighted by the sample weight when provided. "
    },
    {
      "shape": "n_classes, n_features",
      "type": "array",
      "name": "feature_count_",
      "description": "Number of samples encountered for each (class, feature) during fitting. This value is weighted by the sample weight when provided. "
    }
  ]
}
